COMP/STAT112 Notebook - 15 Dates
…
Use these shortcuts to create the following datasets.

# First: recall the variable names
names(penguins)

[1] "species"           "island"            "bill_length_mm"   
[4] "bill_depth_mm"     "flipper_length_mm" "body_mass_g"      
[7] "sex"               "year"             

# Use a shortcut to keep everything but the year and island variables
penguins |> 
  select(-year, -island)

# A tibble: 344 × 6
   species bill_length_mm bill_depth_mm flipper_length_mm body_mass_g sex   
   <chr>            <dbl>         <dbl>             <dbl>       <dbl> <chr> 
 1 Adelie            39.1          18.7               181        3750 male  
 2 Adelie            39.5          17.4               186        3800 female
 3 Adelie            40.3          18                 195        3250 female
 4 Adelie            NA            NA                  NA          NA <NA>  
 5 Adelie            36.7          19.3               193        3450 female
 6 Adelie            39.3          20.6               190        3650 male  
 7 Adelie            38.9          17.8               181        3625 female
 8 Adelie            39.2          19.6               195        4675 male  
 9 Adelie            34.1          18.1               193        3475 <NA>  
10 Adelie            42            20.2               190        4250 <NA>  
# ℹ 334 more rows

# Use a shortcut to keep only species and the penguin characteristics measured in mm
penguins |> 
  select (species, ends_with("mm"))

# A tibble: 344 × 4
   species bill_length_mm bill_depth_mm flipper_length_mm
   <chr>            <dbl>         <dbl>             <dbl>
 1 Adelie            39.1          18.7               181
 2 Adelie            39.5          17.4               186
 3 Adelie            40.3          18                 195
 4 Adelie            NA            NA                  NA
 5 Adelie            36.7          19.3               193
 6 Adelie            39.3          20.6               190
 7 Adelie            38.9          17.8               181
 8 Adelie            39.2          19.6               195
 9 Adelie            34.1          18.1               193
10 Adelie            42            20.2               190
# ℹ 334 more rows

# Use a shortcut to keep only species and bill-related measurements
penguins |>
  select (species, starts_with("bill"))

# A tibble: 344 × 3
   species bill_length_mm bill_depth_mm
   <chr>            <dbl>         <dbl>
 1 Adelie            39.1          18.7
 2 Adelie            39.5          17.4
 3 Adelie            40.3          18  
 4 Adelie            NA            NA  
 5 Adelie            36.7          19.3
 6 Adelie            39.3          20.6
 7 Adelie            38.9          17.8
 8 Adelie            39.2          19.6
 9 Adelie            34.1          18.1
10 Adelie            42            20.2
# ℹ 334 more rows

# Use a shortcut to keep only species and the length-related characteristics
penguins |>
  select (species, contains("length"))

# A tibble: 344 × 3
   species bill_length_mm flipper_length_mm
   <chr>            <dbl>             <dbl>
 1 Adelie            39.1               181
 2 Adelie            39.5               186
 3 Adelie            40.3               195
 4 Adelie            NA                  NA
 5 Adelie            36.7               193
 6 Adelie            39.3               190
 7 Adelie            38.9               181
 8 Adelie            39.2               195
 9 Adelie            34.1               193
10 Adelie            42                 190
# ℹ 334 more rows

Exercise 3: Arranging, Counting, & Grouping by Multiple Variables

We’ve done examples where we need to filter() by more than one variable, or select() more than one variable. Use your intuition for how we can arrange(), count(), and group_by() more than one variable.

# Change this code to sort the penguins by species, and then island name
# NOTE: The first row should be an Adelie penguin living on Biscoe island
penguins |> 
  arrange(species, island)

# A tibble: 344 × 8
   species island bill_length_mm bill_depth_mm flipper_length_mm body_mass_g
   <chr>   <chr>           <dbl>         <dbl>             <dbl>       <dbl>
 1 Adelie  Biscoe           37.8          18.3               174        3400
 2 Adelie  Biscoe           37.7          18.7               180        3600
 3 Adelie  Biscoe           35.9          19.2               189        3800
 4 Adelie  Biscoe           38.2          18.1               185        3950
 5 Adelie  Biscoe           38.8          17.2               180        3800
 6 Adelie  Biscoe           35.3          18.9               187        3800
 7 Adelie  Biscoe           40.6          18.6               183        3550
 8 Adelie  Biscoe           40.5          17.9               187        3200
 9 Adelie  Biscoe           37.9          18.6               172        3150
10 Adelie  Biscoe           40.5          18.9               180        3950
# ℹ 334 more rows
# ℹ 2 more variables: sex <chr>, year <dbl>
…
# How many total births were there in this time period?
Birthdays |> 
  summarize(total_births = sum(births))

  total_births
1     70486538

# How many total births were there per state in this time period, sorted from low to high?
Birthdays |> 
  group_by (state) |>
  summarize (total_births_state = sum(births)) |> 
  arrange (total_births_state)

# A tibble: 51 × 2
   state total_births_state
   <chr>              <int>
 1 VT                147886
 2 WY                154019
 3 AK                185385
 4 DE                188705
 5 SD                235734
 6 ND                238696
 7 NV                241470
 8 MT                253884
 9 NH                264984
10 RI                265038
# ℹ 41 more rows
…
Part a

Calculate the total number of births in each month and year, eg, Jan 1969, Feb 1969, …. Label month by names not numbers, eg, Jan not 1. Then, plot the births by month and comment on what you learn.

Birthdays |>
  group_by(month, year)|>
  summarize (total_births = sum(month))

# A tibble: 240 × 3
# Groups:   month [12]
   month  year total_births
   <int> <int>        <int>
 1     1  1969         1581
 2     1  1970         1581
 3     1  1971         1581
 4     1  1972         1581
 5     1  1973         1581
 6     1  1974         1581
 7     1  1975         1581
 8     1  1976         1581
 9     1  1977         1581
10     1  1978         1581
# ℹ 230 more rows
…
